<svg width="400" height="400" viewBox="0 0 400 400" fill="none" xmlns="http://www.w3.org/2000/svg">
<g clip-path="url(#clip0)">
<path d="M200.017 0C119.131 0 46.1993 48.7132 15.2342 123.457C-15.7308 198.189 1.38808 284.211 58.5853 341.408C115.782 398.618 201.805 415.724 276.549 384.772C351.28 353.807 400.006 280.888 400.006 199.989C399.868 89.6097 310.409 0.163636 200.017 0.0251748V0ZM200.017 381.877C99.444 381.877 17.9028 300.336 17.9028 199.75C17.9028 99.1636 99.4314 17.6224 200.017 17.6224C300.591 17.6224 382.132 99.151 382.132 199.737C382.132 300.31 300.603 381.852 200.017 381.864" fill="#1A1818"/>
<path d="M166.748 222.18H100.199C76.8114 238.078 62.4366 264.197 61.5303 292.443C92.4072 338.752 144.355 366.608 200.004 366.709C203.718 366.709 207.393 366.382 211.106 366.382V305.874C212.315 272.052 195.41 240.143 166.736 222.168L166.748 222.18ZM342.192 139.494H292.446L337.811 118.322C341.084 116.773 342.569 112.934 341.185 109.586C340.052 107.295 337.685 105.86 335.143 105.873C334.199 105.898 333.28 106.124 332.449 106.565C332.449 106.565 259.505 140.853 259.14 140.853C257.214 141.948 256.056 144 256.106 146.228C256.119 148.418 257.265 150.457 259.14 151.603L332.449 185.878C333.305 186.231 334.211 186.457 335.13 186.558C337.685 186.583 340.039 185.148 341.172 182.857C341.965 181.259 342.053 179.408 341.399 177.747C340.769 176.098 339.46 174.776 337.811 174.122L292.446 152.924H342.192C345.905 152.924 348.913 149.916 348.913 146.203C348.913 142.502 345.905 139.494 342.192 139.494ZM222.196 205.703C206.764 197.144 194.957 183.298 188.915 166.72H205.732V122.35H111.263C81.6954 122.35 61.1905 148.569 61.1905 177.822H100.186V211.091H166.711C166.711 199.334 164.684 191.606 167.038 184.871C172.413 200.001 199.639 216.466 211.069 216.466C224.172 216.806 225.192 207.73 222.158 205.716L222.196 205.703ZM216.494 166.695H244.375V155.606H243.368C239.63 155.807 236.093 153.944 234.154 150.734C232.228 147.537 232.228 143.522 234.154 140.324C236.093 137.127 239.63 135.252 243.368 135.466H244.375V122.022H216.494V166.695ZM341.927 326.895L234.846 219.814C229.383 226.863 220.018 229.607 211.623 226.611L215.248 230.261L327.011 342.025L341.927 326.908V326.895ZM75.1625 60.1175L59.4786 74.4797L97.2408 112.229H127.274L75.1625 60.1175Z" fill="#1A1818"/>
</g>
<defs>
<clipPath id="clip0">
<rect width="400" height="400" fill="white"/>
</clipPath>
</defs>
</svg>
