<svg width="400" height="400" viewBox="0 0 400 400" fill="none" xmlns="http://www.w3.org/2000/svg">
<path fill-rule="evenodd" clip-rule="evenodd" d="M200 303.333C142.931 303.333 96.6667 257.069 96.6667 200C96.6667 142.931 142.931 96.6667 200 96.6667C257.069 96.6667 303.333 142.931 303.333 200C303.333 257.069 257.069 303.333 200 303.333ZM200 324C131.517 324 76 268.483 76 200C76 131.517 131.517 76 200 76C268.483 76 324 131.517 324 200C324 268.483 268.483 324 200 324ZM196.973 238.307L227.973 207.307C232.009 203.271 232.009 196.729 227.973 192.693L196.973 161.693C192.938 157.658 186.395 157.658 182.36 161.693C178.324 165.729 178.324 172.271 182.36 176.307L206.053 200L182.36 223.693C178.324 227.729 178.324 234.271 182.36 238.307C186.395 242.342 192.938 242.342 196.973 238.307Z" fill="black"/>
</svg>
