<svg width="400" height="400" viewBox="0 0 400 400" fill="none" xmlns="http://www.w3.org/2000/svg">
<path d="M215.385 92.3077V184.615H307.692V215.385H215.385V307.692H184.615V215.385H92.3077V184.615H184.615V92.3077H215.385Z" fill="black"/>
<path fill-rule="evenodd" clip-rule="evenodd" d="M400 200C400 310.457 310.457 400 200 400C89.543 400 0 310.457 0 200C0 89.543 89.543 0 200 0C310.457 0 400 89.543 400 200ZM369.231 200C369.231 293.464 293.464 369.231 200 369.231C106.536 369.231 30.7692 293.464 30.7692 200C30.7692 106.536 106.536 30.7692 200 30.7692C293.464 30.7692 369.231 106.536 369.231 200Z" fill="black"/>
</svg>
