<svg width="400" height="400" viewBox="0 0 400 400" fill="none" xmlns="http://www.w3.org/2000/svg">
<path d="M237.125 143.75C242.302 143.75 246.5 147.948 246.5 153.125V303.125C246.5 308.302 242.302 312.5 237.125 312.5C231.948 312.5 227.75 308.302 227.75 303.125V153.125C227.75 147.948 231.948 143.75 237.125 143.75Z" fill="black"/>
<path d="M209 134.375C209 129.198 204.802 125 199.625 125C194.448 125 190.25 129.198 190.25 134.375V303.125C190.25 308.302 194.448 312.5 199.625 312.5C204.802 312.5 209 308.302 209 303.125V134.375Z" fill="black"/>
<path d="M162.125 143.75C167.302 143.75 171.5 147.948 171.5 153.125V303.125C171.5 308.302 167.302 312.5 162.125 312.5C156.948 312.5 152.75 308.302 152.75 303.125V153.125C152.75 147.948 156.948 143.75 162.125 143.75Z" fill="black"/>
<path fill-rule="evenodd" clip-rule="evenodd" d="M255.875 50H143.375C138.198 50 134 54.1977 134 59.375V87.5H68.375C63.1977 87.5 59 91.6977 59 96.875C59 102.052 63.1977 106.25 68.375 106.25H96.5V340.625C96.5 345.802 100.698 350 105.875 350H293.375C298.552 350 302.75 345.802 302.75 340.625V106.25H330.875C336.052 106.25 340.25 102.052 340.25 96.875C340.25 91.6977 336.052 87.5 330.875 87.5H265.25V59.375C265.25 54.1977 261.052 50 255.875 50ZM152.75 87.5V68.75H246.5V87.5H152.75ZM115.25 106.25H284V331.25H115.25V106.25Z" fill="black"/>
</svg>
