<svg width="400" height="400" viewBox="0 0 400 400" fill="none" xmlns="http://www.w3.org/2000/svg">
<path d="M307.321 342.678C317.084 352.441 332.913 352.441 342.676 342.678C352.439 332.915 352.439 317.085 342.676 307.322L235.355 200.001L342.678 92.6777C352.441 82.9146 352.441 67.0854 342.678 57.3223C332.915 47.5592 317.086 47.5592 307.323 57.3223L200 164.646L92.6774 57.3223C82.9143 47.5592 67.0853 47.5592 57.3223 57.3223C47.5592 67.0854 47.5592 82.9146 57.3223 92.6777L164.645 200.001L57.3243 307.322C47.5613 317.085 47.5613 332.915 57.3243 342.678C67.0874 352.441 82.9164 352.441 92.6794 342.678L200 235.356L307.321 342.678Z" fill="black"/>
</svg>
